{
	"ColumnWidths":
	{
		"PrimaryName_34_2861F69A4655A3C7F77518A627C26D35": 159,
		"PrimaryInfo_33_ACDDB270439E0DE825BB58B9DE9F6E50": 571,
		"SecondaryName_15_537FA5354A649F55B2866489CB42AA83": 163,
		"SecondaryInfo_31_70ECFA9541B0192D7ADFBCB522C35726": 506,
		"UltimateInfo_39_16CC914E4E6E7DDF395793AABA2BC335": 423,
		"Class_2_390AABC242B0651F1437678FF797E77E": 97,
		"SkinName_37_61D7B1064B0D366222B7AD89B85EBDC7": 118,
		"PrimaryIcon_35_6945EE6F4E665E40C764D398FEEFC148": 98
	}
}