﻿Log file open, 12/11/18 23:17:45
LogWindows: Failed to load 'aqProf.dll' (GetLastError=126)
LogWindows: File 'aqProf.dll' does not exist
LogWindows: Failed to load 'VtuneApi.dll' (GetLastError=126)
LogWindows: File 'VtuneApi.dll' does not exist
LogWindows: Failed to load 'VtuneApi32e.dll' (GetLastError=126)
LogWindows: File 'VtuneApi32e.dll' does not exist
LogInit: Display: Running engine for game: HordeShooter
LogPlatformFile: Not using cached read wrapper
LogInit: Display: RandInit(1091450528) SRandInit(1091450528).
LogInit: Read version file with build ID '3709383'
LogInit: Overriding engine version to CL 3832480, compatible CL 3709383
LogInit: Registered custom module enumerator with build ID '3709383'
LogTaskGraph: Started task graph with 5 named threads and 14 total threads with 3 sets of task threads.
LogStats: Stats thread started at 4.143812
LogD3D11RHI: Aftermath initialized
LogModuleManager: Display: Found up-to-date module file ../../../Engine/Plugins/2D/Paper2D/Binaries/Win64/UE4Editor-Paper2D.dll (API version 3709383).
LogModuleManager: Display: Found up-to-date module file ../../../Engine/Plugins/2D/Paper2D/Binaries/Win64/UE4Editor-Paper2DEditor.dll (API version 3709383).
LogModuleManager: Display: Found up-to-date module file ../../../Engine/Plugins/2D/Paper2D/Binaries/Win64/UE4Editor-PaperSpriteSheetImporter.dll (API version 3709383).
LogModuleManager: Display: Found up-to-date module file ../../../Engine/Plugins/2D/Paper2D/Binaries/Win64/UE4Editor-PaperTiledImporter.dll (API version 3709383).
LogModuleManager: Display: Found up-to-date module file ../../../Engine/Plugins/2D/Paper2D/Binaries/Win64/UE4Editor-SmartSnapping.dll (API version 3709383).
LogModuleManager: Display: Found up-to-date module file ../../../Engine/Plugins/Blendables/LightPropagationVolume/Binaries/Win64/UE4Editor-LightPropagationVolumeRuntime.dll (API version 3709383).
LogModuleManager: Display: Found up-to-date module file ../../../Engine/Plugins/Blendables/LightPropagationVolume/Binaries/Win64/UE4Editor-LightPropagationVolumeEditor.dll (API version 3709383).
LogModuleManager: Display: Found up-to-date module file ../../../Engine/Plugins/Developer/GitSourceControl/Binaries/Win64/UE4Editor-GitSourceControl.dll (API version 3709383).
LogModuleManager: Display: Found up-to-date module file ../../../Engine/Plugins/Developer/PerforceSourceControl/Binaries/Win64/UE4Editor-PerforceSourceControl.dll (API version 3709383).
LogModuleManager: Display: Found up-to-date module file ../../../Engine/Plugins/Developer/SubversionSourceControl/Binaries/Win64/UE4Editor-SubversionSourceControl.dll (API version 3709383).
LogModuleManager: Display: Found up-to-date module file ../../../Engine/Plugins/Developer/UObjectPlugin/Binaries/Win64/UE4Editor-UObjectPlugin.dll (API version 3709383).
LogModuleManager: Display: Found up-to-date module file ../../../Engine/Plugins/Developer/VisualStudioCodeSourceCodeAccess/Binaries/Win64/UE4Editor-VisualStudioCodeSourceCodeAccess.dll (API version 3709383).
LogModuleManager: Display: Found up-to-date module file ../../../Engine/Plugins/Developer/VisualStudioSourceCodeAccess/Binaries/Win64/UE4Editor-VisualStudioSourceCodeAccess.dll (API version 3709383).
LogModuleManager: Display: Found up-to-date module file ../../../Engine/Plugins/Editor/AssetManagerEditor/Binaries/Win64/UE4Editor-AssetManagerEditor.dll (API version 3709383).
LogModuleManager: Display: Found up-to-date module file ../../../Engine/Plugins/Editor/AudioCapture/Binaries/Win64/UE4Editor-AudioCapture.dll (API version 3709383).
LogModuleManager: Display: Found up-to-date module file ../../../Engine/Plugins/Editor/FacialAnimation/Binaries/Win64/UE4Editor-FacialAnimation.dll (API version 3709383).
LogModuleManager: Display: Found up-to-date module file ../../../Engine/Plugins/Editor/FacialAnimation/Binaries/Win64/UE4Editor-FacialAnimationEditor.dll (API version 3709383).
LogModuleManager: Display: Found up-to-date module file ../../../Engine/Plugins/Editor/GameplayTagsEditor/Binaries/Win64/UE4Editor-GameplayTagsEditor.dll (API version 3709383).
LogModuleManager: Display: Found up-to-date module file ../../../Engine/Plugins/Editor/MobileLauncherProfileWizard/Binaries/Win64/UE4Editor-MobileLauncherProfileWizard.dll (API version 3709383).
LogModuleManager: Display: Found up-to-date module file ../../../Engine/Plugins/Editor/PluginBrowser/Binaries/Win64/UE4Editor-PluginBrowser.dll (API version 3709383).
LogModuleManager: Display: Found up-to-date module file ../../../Engine/Plugins/Editor/SpeedTreeImporter/Binaries/Win64/UE4Editor-SpeedTreeImporter.dll (API version 3709383).
LogModuleManager: Display: Found up-to-date module file ../../../Engine/Plugins/Experimental/AlembicImporter/Binaries/Win64/UE4Editor-AlembicImporter.dll (API version 3709383).
LogModuleManager: Display: Found up-to-date module file ../../../Engine/Plugins/Experimental/AlembicImporter/Binaries/Win64/UE4Editor-AlembicLibrary.dll (API version 3709383).
LogModuleManager: Display: Found up-to-date module file ../../../Engine/Plugins/Experimental/CharacterAI/Binaries/Win64/UE4Editor-CharacterAI.dll (API version 3709383).
LogModuleManager: Display: Found up-to-date module file ../../../Engine/Plugins/Experimental/HTML5Networking/Binaries/Win64/UE4Editor-HTML5Networking.dll (API version 3709383).
LogModuleManager: Display: Found up-to-date module file ../../../Engine/Plugins/Media/AndroidMedia/Binaries/Win64/UE4Editor-AndroidMediaEditor.dll (API version 3709383).
LogModuleManager: Display: Found up-to-date module file ../../../Engine/Plugins/Media/AndroidMedia/Binaries/Win64/UE4Editor-AndroidMediaFactory.dll (API version 3709383).
LogModuleManager: Display: Found up-to-date module file ../../../Engine/Plugins/Media/AvfMedia/Binaries/Win64/UE4Editor-AvfMediaEditor.dll (API version 3709383).
LogModuleManager: Display: Found up-to-date module file ../../../Engine/Plugins/Media/AvfMedia/Binaries/Win64/UE4Editor-AvfMediaFactory.dll (API version 3709383).
LogModuleManager: Display: Found up-to-date module file ../../../Engine/Plugins/Media/AvfMedia/Binaries/Win64/UE4Editor-AvfMediaFactory.dll (API version 3709383).
LogModuleManager: Display: Found up-to-date module file ../../../Engine/Plugins/Media/ImgMedia/Binaries/Win64/UE4Editor-ImgMedia.dll (API version 3709383).
LogModuleManager: Display: Found up-to-date module file ../../../Engine/Plugins/Media/ImgMedia/Binaries/Win64/UE4Editor-ImgMediaEditor.dll (API version 3709383).
LogModuleManager: Display: Found up-to-date module file ../../../Engine/Plugins/Media/ImgMedia/Binaries/Win64/UE4Editor-ImgMediaFactory.dll (API version 3709383).
LogModuleManager: Display: Found up-to-date module file ../../../Engine/Plugins/Media/ImgMedia/Binaries/Win64/UE4Editor-ImgMediaFactory.dll (API version 3709383).
LogModuleManager: Display: Found up-to-date module file ../../../Engine/Plugins/Media/ImgMedia/Binaries/Win64/UE4Editor-OpenExrWrapper.dll (API version 3709383).
LogModuleManager: Display: Found up-to-date module file ../../../Engine/Plugins/Media/MediaCompositing/Binaries/Win64/UE4Editor-MediaCompositing.dll (API version 3709383).
LogModuleManager: Display: Found up-to-date module file ../../../Engine/Plugins/Media/MediaCompositing/Binaries/Win64/UE4Editor-MediaCompositingEditor.dll (API version 3709383).
LogModuleManager: Display: Found up-to-date module file ../../../Engine/Plugins/Media/MediaPlayerEditor/Binaries/Win64/UE4Editor-MediaPlayerEditor.dll (API version 3709383).
LogModuleManager: Display: Found up-to-date module file ../../../Engine/Plugins/Media/WmfMedia/Binaries/Win64/UE4Editor-WmfMedia.dll (API version 3709383).
LogModuleManager: Display: Found up-to-date module file ../../../Engine/Plugins/Media/WmfMedia/Binaries/Win64/UE4Editor-WmfMediaEditor.dll (API version 3709383).
LogModuleManager: Display: Found up-to-date module file ../../../Engine/Plugins/Media/WmfMedia/Binaries/Win64/UE4Editor-WmfMediaFactory.dll (API version 3709383).
LogModuleManager: Display: Found up-to-date module file ../../../Engine/Plugins/Media/WmfMedia/Binaries/Win64/UE4Editor-WmfMediaFactory.dll (API version 3709383).
LogModuleManager: Display: Found up-to-date module file ../../../Engine/Plugins/Messaging/TcpMessaging/Binaries/Win64/UE4Editor-TcpMessaging.dll (API version 3709383).
LogModuleManager: Display: Found up-to-date module file ../../../Engine/Plugins/Messaging/UdpMessaging/Binaries/Win64/UE4Editor-UdpMessaging.dll (API version 3709383).
LogModuleManager: Display: Found up-to-date module file ../../../Engine/Plugins/MovieScene/ActorSequence/Binaries/Win64/UE4Editor-ActorSequence.dll (API version 3709383).
LogModuleManager: Display: Found up-to-date module file ../../../Engine/Plugins/MovieScene/LevelSequenceEditor/Binaries/Win64/UE4Editor-LevelSequenceEditor.dll (API version 3709383).
LogModuleManager: Display: Found up-to-date module file ../../../Engine/Plugins/MovieScene/MatineeToLevelSequence/Binaries/Win64/UE4Editor-MatineeToLevelSequence.dll (API version 3709383).
LogModuleManager: Display: Found up-to-date module file ../../../Engine/Plugins/Online/OnlineSubsystem/Binaries/Win64/UE4Editor-OnlineSubsystem.dll (API version 3709383).
LogModuleManager: Display: Found up-to-date module file ../../../Engine/Plugins/Runtime/AndroidPermission/Binaries/Win64/UE4Editor-AndroidPermission.dll (API version 3709383).
LogModuleManager: Display: Found up-to-date module file ../../../Engine/Plugins/Online/OnlineSubsystemNull/Binaries/Win64/UE4Editor-OnlineSubsystemNull.dll (API version 3709383).
LogModuleManager: Display: Found up-to-date module file ../../../Engine/Plugins/Online/OnlineSubsystemUtils/Binaries/Win64/UE4Editor-OnlineSubsystemUtils.dll (API version 3709383).
LogModuleManager: Display: Found up-to-date module file ../../../Engine/Plugins/Online/OnlineSubsystemUtils/Binaries/Win64/UE4Editor-OnlineBlueprintSupport.dll (API version 3709383).
LogModuleManager: Display: Found up-to-date module file ../../../Engine/Plugins/Runtime/AndroidDeviceProfileSelector/Binaries/Win64/UE4Editor-AndroidDeviceProfileSelector.dll (API version 3709383).
LogModuleManager: Display: Found up-to-date module file ../../../Engine/Plugins/Runtime/AppleARKit/Binaries/Win64/UE4Editor-AppleARKit.dll (API version 3709383).
LogModuleManager: Display: Found up-to-date module file ../../../Engine/Plugins/Runtime/ArchVisCharacter/Binaries/Win64/UE4Editor-ArchVisCharacter.dll (API version 3709383).
LogModuleManager: Display: Found up-to-date module file ../../../Engine/Plugins/Runtime/CableComponent/Binaries/Win64/UE4Editor-CableComponent.dll (API version 3709383).
LogModuleManager: Display: Found up-to-date module file ../../../Engine/Plugins/Runtime/CustomMeshComponent/Binaries/Win64/UE4Editor-CustomMeshComponent.dll (API version 3709383).
LogModuleManager: Display: Found up-to-date module file ../../../Engine/Plugins/Runtime/ExampleDeviceProfileSelector/Binaries/Win64/UE4Editor-ExampleDeviceProfileSelector.dll (API version 3709383).
LogModuleManager: Display: Found up-to-date module file ../../../Engine/Plugins/Runtime/ImmediatePhysics/Binaries/Win64/UE4Editor-ImmediatePhysics.dll (API version 3709383).
LogModuleManager: Display: Found up-to-date module file ../../../Engine/Plugins/Runtime/ImmediatePhysics/Binaries/Win64/UE4Editor-ImmediatePhysicsEditor.dll (API version 3709383).
LogModuleManager: Display: Found up-to-date module file ../../../Engine/Plugins/Runtime/LocationServicesBPLibrary/Binaries/Win64/UE4Editor-LocationServicesBPLibrary.dll (API version 3709383).
LogModuleManager: Display: Found up-to-date module file ../../../Engine/Plugins/Runtime/MobilePatchingUtils/Binaries/Win64/UE4Editor-MobilePatchingUtils.dll (API version 3709383).
LogModuleManager: Display: Found up-to-date module file ../../../Engine/Plugins/Runtime/Oculus/OculusVR/Binaries/Win64/UE4Editor-OculusHMD.dll (API version 3709383).
LogModuleManager: Display: Found up-to-date module file ../../../Engine/Plugins/Runtime/Oculus/OculusVR/Binaries/Win64/UE4Editor-OculusInput.dll (API version 3709383).
LogModuleManager: Display: Found up-to-date module file ../../../Engine/Plugins/Runtime/Oculus/OculusVR/Binaries/Win64/UE4Editor-OculusEditor.dll (API version 3709383).
LogModuleManager: Display: Found up-to-date module file ../../../Engine/Plugins/Runtime/PhysXVehicles/Binaries/Win64/UE4Editor-PhysXVehicles.dll (API version 3709383).
LogModuleManager: Display: Found up-to-date module file ../../../Engine/Plugins/Runtime/PhysXVehicles/Binaries/Win64/UE4Editor-PhysXVehiclesEditor.dll (API version 3709383).
LogModuleManager: Display: Found up-to-date module file ../../../Engine/Plugins/Runtime/ProceduralMeshComponent/Binaries/Win64/UE4Editor-ProceduralMeshComponent.dll (API version 3709383).
LogModuleManager: Display: Found up-to-date module file ../../../Engine/Plugins/Runtime/ProceduralMeshComponent/Binaries/Win64/UE4Editor-ProceduralMeshComponentEditor.dll (API version 3709383).
LogModuleManager: Display: Found up-to-date module file ../../../Engine/Plugins/Runtime/RuntimePhysXCooking/Binaries/Win64/UE4Editor-RuntimePhysXCooking.dll (API version 3709383).
LogModuleManager: Display: Found up-to-date module file ../../../Engine/Plugins/Runtime/Steam/SteamVR/Binaries/Win64/UE4Editor-SteamVR.dll (API version 3709383).
LogModuleManager: Display: Found up-to-date module file ../../../Engine/Plugins/Runtime/Steam/SteamVR/Binaries/Win64/UE4Editor-SteamVRController.dll (API version 3709383).
LogModuleManager: Display: Found up-to-date module file ../../../Engine/Plugins/Runtime/WindowsMoviePlayer/Binaries/Win64/UE4Editor-WindowsMoviePlayer.dll (API version 3709383).
LogPluginManager: Mounting plugin Paper2D
LogPluginManager: Mounting plugin LightPropagationVolume
LogPluginManager: Mounting plugin CodeLiteSourceCodeAccess
LogPluginManager: Mounting plugin GitSourceControl
LogPluginManager: Mounting plugin KDevelopSourceCodeAccess
LogPluginManager: Mounting plugin NullSourceCodeAccess
LogPluginManager: Mounting plugin PerforceSourceControl
LogPluginManager: Mounting plugin SubversionSourceControl
LogPluginManager: Mounting plugin UObjectPlugin
LogPluginManager: Mounting plugin VisualStudioCodeSourceCodeAccess
LogPluginManager: Mounting plugin VisualStudioSourceCodeAccess
LogPluginManager: Mounting plugin XCodeSourceCodeAccess
LogPluginManager: Mounting plugin AssetManagerEditor
LogPluginManager: Mounting plugin AudioCapture
LogPluginManager: Mounting plugin FacialAnimation
LogPluginManager: Mounting plugin GameplayTagsEditor
LogPluginManager: Mounting plugin MobileLauncherProfileWizard
LogPluginManager: Mounting plugin PluginBrowser
LogPluginManager: Mounting plugin SpeedTreeImporter
LogPluginManager: Mounting plugin AlembicImporter
LogPluginManager: Mounting plugin CharacterAI
LogPluginManager: Mounting plugin HTML5Networking
LogPluginManager: Mounting plugin AndroidMedia
LogPluginManager: Mounting plugin AvfMedia
LogPluginManager: Mounting plugin ImgMedia
LogPluginManager: Mounting plugin MediaCompositing
LogPluginManager: Mounting plugin MediaPlayerEditor
LogPluginManager: Mounting plugin WmfMedia
LogPluginManager: Mounting plugin TcpMessaging
LogPluginManager: Mounting plugin UdpMessaging
LogPluginManager: Mounting plugin ActorSequence
LogPluginManager: Mounting plugin LevelSequenceEditor
LogPluginManager: Mounting plugin MatineeToLevelSequence
LogPluginManager: Mounting plugin OnlineSubsystemGooglePlay
LogPluginManager: Mounting plugin OnlineSubsystemIOS
LogPluginManager: Mounting plugin OnlineSubsystem
LogPluginManager: Mounting plugin OnlineSubsystemNull
LogPluginManager: Mounting plugin OnlineSubsystemUtils
LogPluginManager: Mounting plugin AndroidDeviceProfileSelector
LogPluginManager: Mounting plugin AndroidMoviePlayer
LogPluginManager: Mounting plugin AndroidPermission
LogPluginManager: Mounting plugin AppleARKit
LogPluginManager: Mounting plugin AppleMoviePlayer
LogPluginManager: Mounting plugin ArchVisCharacter
LogPluginManager: Mounting plugin CableComponent
LogPluginManager: Mounting plugin CustomMeshComponent
LogPluginManager: Mounting plugin ExampleDeviceProfileSelector
LogPluginManager: Mounting plugin GoogleCloudMessaging
LogPluginManager: Mounting plugin ImmediatePhysics
LogPluginManager: Mounting plugin IOSDeviceProfileSelector
LogPluginManager: Mounting plugin LinuxDeviceProfileSelector
LogPluginManager: Mounting plugin LocationServicesBPLibrary
LogPluginManager: Mounting plugin MobilePatchingUtils
LogPluginManager: Mounting plugin OculusVR
LogPluginManager: Plugin shader directory ../../../Engine/Plugins/Runtime/Oculus/OculusVR/Shaders found
LogPluginManager: Mapping shader source directory ../../../Engine/Plugins/Runtime/Oculus/OculusVR/Shaders to virtual directory /Plugin/OculusVR
LogPluginManager: Mounting plugin PhysXVehicles
LogPluginManager: Mounting plugin ProceduralMeshComponent
LogPluginManager: Mounting plugin RuntimePhysXCooking
LogPluginManager: Mounting plugin SteamVR
LogPluginManager: Mounting plugin WindowsMoviePlayer
LogInit: Using libcurl 7.47.1
LogInit:  - built for x86_64-pc-win32
LogInit:  - supports SSL with OpenSSL/1.0.2g
LogInit:  - supports HTTP deflate (compression) using libz 1.2.8
LogInit:  - other features:
LogInit:      CURL_VERSION_SSL
LogInit:      CURL_VERSION_LIBZ
LogInit:      CURL_VERSION_IPV6
LogInit:      CURL_VERSION_ASYNCHDNS
LogInit:      CURL_VERSION_LARGEFILE
LogInit:      CURL_VERSION_IDN
LogInit:  CurlRequestOptions (configurable via config and command line):
LogInit:  - bVerifyPeer = false  - Libcurl will NOT verify peer certificate
LogInit:  - bUseHttpProxy = false  - Libcurl will NOT use HTTP proxy
LogInit:  - bDontReuseConnections = false  - Libcurl will reuse connections
LogInit:  - CertBundlePath = nullptr  - Libcurl will use whatever was configured at build time.
LogInit: Build: ++UE4+Release-4.18-CL-3832480
LogInit: Engine Version: 4.18.3-3832480+++UE4+Release-4.18
LogInit: Compatible Engine Version: 4.18.0-3709383+++UE4+Release-4.18
LogInit: Net CL: 3709383
LogDevObjectVersion: Number of dev versions registered: 16
LogDevObjectVersion:   Dev-Blueprints (B0D832E4-1F89-4F0D-ACCF-7EB736FD4AA2): 10
LogDevObjectVersion:   Dev-Build (E1C64328-A22C-4D53-A36C-8E866417BD8C): 0
LogDevObjectVersion:   Dev-Core (375EC13C-06E4-48FB-B500-84F0262A717E): 2
LogDevObjectVersion:   Dev-Editor (E4B068ED-F494-42E9-A231-DA0B2E46BB41): 20
LogDevObjectVersion:   Dev-Framework (CFFC743F-43B0-4480-9391-14DF171D2073): 30
LogDevObjectVersion:   Dev-Mobile (B02B49B5-BB20-44E9-A304-32B752E40360): 0
LogDevObjectVersion:   Dev-Networking (A4E4105C-59A1-49B5-A7C5-40C4547EDFEE): 0
LogDevObjectVersion:   Dev-Online (39C831C9-5AE6-47DC-9A44-9C173E1C8E7C): 0
LogDevObjectVersion:   Dev-Physics (78F01B33-EBEA-4F98-B9B4-84EACCB95AA2): 0
LogDevObjectVersion:   Dev-Platform (6631380F-2D4D-43E0-8009-CF276956A95A): 0
LogDevObjectVersion:   Dev-Rendering (12F88B9F-8875-4AFC-A67C-D90C383ABD29): 20
LogDevObjectVersion:   Dev-Sequencer (7B5AE74C-D270-4C10-A958-57980B212A5A): 4
LogDevObjectVersion:   Dev-VR (D7296918-1DD6-4BDD-9DE2-64A83CC13884): 0
LogDevObjectVersion:   Dev-LoadTimes (C2A15278-BFE7-4AFE-6C17-90FF531DF755): 1
LogDevObjectVersion:   Private-Geometry (6EACA3D4-40EC-4CC1-B786-8BED09428FC5): 1
LogDevObjectVersion:   Dev-AnimPhys (29E575DD-E0A3-4627-9D10-D276232CDCEA): 12
LogInit: Compiled (64-bit): Jan 12 2018 02:04:55
LogInit: Compiled with Visual C++: 19.00.24215.01
LogInit: Build Configuration: Development
LogInit: Branch Name: ++UE4+Release-4.18
LogInit: Command line:  
LogInit: Base directory: C:/Program Files/Epic Games/UE_4.18/Engine/Binaries/Win64/
LogInit: Installed Engine Build: 1
LogInit: Presizing for max 8388607 objects, including 0 objects not considered by GC, pre-allocating 0 bytes for permanent pool.
LogInit: Object subsystem initialized
[2018.12.11-12.17.56:167][  0]LogInit: Selected Device Profile: [Windows]
[2018.12.11-12.17.56:167][  0]LogInit: Applying CVar settings loaded from the selected device profile: [Windows]
[2018.12.11-12.17.56:331][  0]LogInit: Computer: LAPTOP-L4N52EDD
[2018.12.11-12.17.56:331][  0]LogInit: User: shado
[2018.12.11-12.17.56:331][  0]LogInit: CPU Page size=4096, Cores=4
[2018.12.11-12.17.56:331][  0]LogInit: High frequency timer resolution =2.531249 MHz
[2018.12.11-12.17.56:336][  0]LogMemory: Memory total: Physical=15.9GB (16GB approx)
[2018.12.11-12.17.56:339][  0]LogMemory: Platform Memory Stats for Windows
[2018.12.11-12.17.56:339][  0]LogMemory: Process Physical Memory: 273.11 MB used, 273.11 MB peak
[2018.12.11-12.17.56:339][  0]LogMemory: Process Virtual Memory: 269.85 MB used, 269.85 MB peak
[2018.12.11-12.17.56:339][  0]LogMemory: Physical Memory: 7157.12 MB used,  9086.66 MB free, 16243.78 MB total
[2018.12.11-12.17.56:339][  0]LogMemory: Virtual Memory: 4780.14 MB used,  9086.66 MB free, 134217728.00 MB total
[2018.12.11-12.17.58:005][  0]LogInit: Using OS detected language (en-US).
[2018.12.11-12.17.58:005][  0]LogInit: Using OS detected locale (en-AU).
[2018.12.11-12.17.58:257][  0]LogTextLocalizationManager: No specific localization for 'en-US' exists, so the 'en' localization will be used.
[2018.12.11-12.17.59:567][  0]LogInit: Setting process to per monitor DPI aware
[2018.12.11-12.18.03:017][  0]LogD3D11RHI: D3D11 adapters:
[2018.12.11-12.18.03:315][  0]LogD3D11RHI:    0. 'NVIDIA GeForce GTX 960M' (Feature Level 11_0)
[2018.12.11-12.18.03:315][  0]LogD3D11RHI:       4064/0/8121 MB DedicatedVideo/DedicatedSystem/SharedSystem, Outputs:1, VendorId:0x10de
[2018.12.11-12.18.03:394][  0]LogD3D11RHI:    1. 'Intel(R) HD Graphics 530' (Feature Level 11_0)
[2018.12.11-12.18.03:394][  0]LogD3D11RHI:       128/0/8121 MB DedicatedVideo/DedicatedSystem/SharedSystem, Outputs:0, VendorId:0x8086
[2018.12.11-12.18.03:396][  0]LogD3D11RHI:    2. 'Microsoft Basic Render Driver' (Feature Level 11_0)
[2018.12.11-12.18.03:396][  0]LogD3D11RHI:       0/0/8121 MB DedicatedVideo/DedicatedSystem/SharedSystem, Outputs:0, VendorId:0x1414
[2018.12.11-12.18.03:396][  0]LogD3D11RHI: Chosen D3D11 Adapter: 0
[2018.12.11-12.18.03:431][  0]LogD3D11RHI: Creating new Direct3DDevice
[2018.12.11-12.18.03:457][  0]LogD3D11RHI:     GPU DeviceId: 0x139b (for the marketing name, search the web for "GPU Device Id")
[2018.12.11-12.18.03:457][  0]LogWindows: EnumDisplayDevices:
[2018.12.11-12.18.03:457][  0]LogWindows:    0. 'Intel(R) HD Graphics 530' (P:1 D:1)
[2018.12.11-12.18.03:464][  0]LogWindows:    1. 'Intel(R) HD Graphics 530' (P:0 D:0)
[2018.12.11-12.18.03:465][  0]LogWindows:    2. 'Intel(R) HD Graphics 530' (P:0 D:0)
[2018.12.11-12.18.03:465][  0]LogWindows: DebugString: GetVideoDriverDetailsInvalid PrimaryIsNotTheChoosenAdapter GetVideoDriverDetailsInvalid PrimaryIsNotTheChoosenAdapter GetVideoDriverDetailsInvalid PrimaryIsNotTheChoosenAdapter FoundDriverCount:0 
[2018.12.11-12.18.03:465][  0]LogD3D11RHI:     Adapter Name: NVIDIA GeForce GTX 960M
[2018.12.11-12.18.03:465][  0]LogD3D11RHI:   Driver Version: Unknown (internal:Unknown, unified:Unknown)
[2018.12.11-12.18.03:465][  0]LogD3D11RHI:      Driver Date: Unknown
[2018.12.11-12.18.03:465][  0]LogRHI: Texture pool is 2845 MB (70% of 4064 MB)
[2018.12.11-12.18.03:551][  0]LogD3D11RHI: Async texture creation enabled
[2018.12.11-12.18.03:864][  0]LogD3D11RHI: GPU Timing Frequency: 1000.000000 (Debug: 2 1)
[2018.12.11-12.18.04:087][  0]LogShaderCompilers: Guid format shader working directory is -23 characters bigger than the processId version (../../../../../../Users/shado/Documents/Unreal Projects/HordeShooter/Intermediate/Shaders/WorkingDirectory/28436/).
[2018.12.11-12.18.04:087][  0]LogShaderCompilers: Cleaned the shader compiler working directory 'C:/Users/shado/AppData/Local/Temp/UnrealShaderWorkingDir/019E81A24F26FE0E163DF6826962B9A8/'.
[2018.12.11-12.18.04:093][  0]LogShaderCompilers: Display: Using Local Shader Compiler.
[2018.12.11-12.18.14:802][  0]LogTemp: Display: Loaded TP AllDesktopTargetPlatform
[2018.12.11-12.18.14:894][  0]LogTemp: Display: Loaded TP MacClientTargetPlatform
[2018.12.11-12.18.14:988][  0]LogTemp: Display: Loaded TP MacNoEditorTargetPlatform
[2018.12.11-12.18.15:087][  0]LogTemp: Display: Loaded TP MacServerTargetPlatform
[2018.12.11-12.18.15:211][  0]LogTemp: Display: Loaded TP MacTargetPlatform
[2018.12.11-12.18.15:330][  0]LogTemp: Display: Loaded TP WindowsClientTargetPlatform
[2018.12.11-12.18.15:424][  0]LogTemp: Display: Loaded TP WindowsNoEditorTargetPlatform
[2018.12.11-12.18.15:519][  0]LogTemp: Display: Loaded TP WindowsServerTargetPlatform
[2018.12.11-12.18.15:601][  0]LogTemp: Display: Loaded TP WindowsTargetPlatform
[2018.12.11-12.18.15:692][  0]LogTemp: Display: Loaded TP Android_ASTCTargetPlatform
[2018.12.11-12.18.15:791][  0]LogTemp: Display: Loaded TP Android_ATCTargetPlatform
[2018.12.11-12.18.15:893][  0]LogTemp: Display: Loaded TP Android_DXTTargetPlatform
[2018.12.11-12.18.15:991][  0]LogTemp: Display: Loaded TP Android_ETC1TargetPlatform
[2018.12.11-12.18.16:086][  0]LogTemp: Display: Loaded TP Android_ETC2TargetPlatform
[2018.12.11-12.18.16:292][  0]LogTemp: Display: Loaded TP Android_MultiTargetPlatform
[2018.12.11-12.18.16:292][  0]LogTemp: Display: Loaded TP Android_PVRTCTargetPlatform
[2018.12.11-12.18.16:443][  0]LogTemp: Display: Loaded TP AndroidTargetPlatform
[2018.12.11-12.18.16:557][  0]LogTemp: Display: Loaded TP HTML5TargetPlatform
[2018.12.11-12.18.16:762][  0]LogTemp: Display: Loaded TP IOSTargetPlatform
[2018.12.11-12.18.16:831][  0]LogTemp: Display: Loaded TP TVOSTargetPlatform
[2018.12.11-12.18.16:970][  0]LogTemp: Display: Loaded TP LinuxClientTargetPlatform
[2018.12.11-12.18.17:103][  0]LogTemp: Display: Loaded TP LinuxNoEditorTargetPlatform
[2018.12.11-12.18.17:227][  0]LogTemp: Display: Loaded TP LinuxServerTargetPlatform
[2018.12.11-12.18.17:359][  0]LogTemp: Display: Loaded TP LinuxTargetPlatform
[2018.12.11-12.18.17:370][  0]LogTargetPlatformManager: Display: Building Assets For Windows
[2018.12.11-12.18.19:543][  0]LogDerivedDataCache: Display: Max Cache Size: 512 MB
[2018.12.11-12.18.20:539][  0]LogDerivedDataCache: Loaded boot cache 0.94s 78MB C:/Users/shado/AppData/Local/UnrealEngine/4.18/DerivedDataCache/Boot.ddc.
[2018.12.11-12.18.20:539][  0]LogDerivedDataCache: Display: Loaded Boot cache: C:/Users/shado/AppData/Local/UnrealEngine/4.18/DerivedDataCache/Boot.ddc
[2018.12.11-12.18.20:539][  0]LogDerivedDataCache: FDerivedDataBackendGraph:  Pak pak cache file ../../../../../../Users/shado/Documents/Unreal Projects/HordeShooter/DerivedDataCache/DDC.ddp not found, will not use a pak cache.
[2018.12.11-12.18.20:539][  0]LogDerivedDataCache: Unable to find inner node Pak for hierarchical cache Hierarchy.
[2018.12.11-12.18.20:539][  0]LogDerivedDataCache: FDerivedDataBackendGraph:  CompressedPak pak cache file ../../../../../../Users/shado/Documents/Unreal Projects/HordeShooter/DerivedDataCache/Compressed.ddp not found, will not use a pak cache.
[2018.12.11-12.18.20:539][  0]LogDerivedDataCache: Unable to find inner node CompressedPak for hierarchical cache Hierarchy.
[2018.12.11-12.18.20:644][  0]LogDerivedDataCache: Display: Pak cache opened for reading ../../../Engine/DerivedDataCache/Compressed.ddp.
[2018.12.11-12.18.20:677][  0]LogDerivedDataCache: Using Local data cache path C:/Users/shado/AppData/Local/UnrealEngine/Common/DerivedDataCache: Writable
[2018.12.11-12.18.20:790][  0]LogMaterial: Verifying Global Shaders for PCD3D_SM5
[2018.12.11-12.18.20:910][  0]LogSlate: Using Freetype 2.6.0
[2018.12.11-12.18.20:959][  0]LogSlate: SlateFontCache - WITH_FREETYPE: 1, WITH_HARFBUZZ: 1
[2018.12.11-12.18.20:960][  0]LogSlate: SlateFontCache - WITH_FREETYPE: 1, WITH_HARFBUZZ: 1
[2018.12.11-12.18.31:225][  0]LogInit: Selected Device Profile: [Windows]
[2018.12.11-12.18.33:709][  0]LogSimplygon: Simplygon DLL not present - disabling.
[2018.12.11-12.18.33:826][  0]LogMeshReduction: Using SimplygonSwarm for distributed automatic mesh merging
[2018.12.11-12.18.33:852][  0]LogMeshReduction: Using QuadricMeshReduction for automatic static mesh reduction
[2018.12.11-12.18.33:852][  0]LogMeshReduction: No automatic skeletal mesh reduction module available
[2018.12.11-12.18.33:852][  0]LogMeshReduction: No automatic mesh merging module available
[2018.12.11-12.18.33:852][  0]LogMeshMerging: No automatic mesh merging module available
[2018.12.11-12.18.34:463][  0]LogNetVersion: HordeShooter , NetCL: 3709383, EngineNetVer: 2, GameNetVer: 0 (Checksum: 3598500593)
[2018.12.11-12.18.36:558][  0]LogAssetRegistry: FAssetRegistry took 0.0334 seconds to start up
[2018.12.11-12.18.49:422][  0]LogPackageLocalizationCache: Processed 7 localized package path(s) for 2 prioritized culture(s) in 0.324434 seconds
[2018.12.11-12.18.49:454][  0]LogUObjectArray: 35870 objects as part of root set at end of initial load.
[2018.12.11-12.18.49:454][  0]LogUObjectAllocator: 7363704 out of 0 bytes used by permanent object pool.
[2018.12.11-12.18.49:454][  0]LogUObjectArray: CloseDisregardForGC: 0/0 objects in disregard for GC pool
[2018.12.11-12.18.49:608][  0]LogInit: WinSock: version 1.1 (2.2), MaxSocks=32767, MaxUdp=65467
[2018.12.11-12.19.22:712][  0]LogTcpMessaging: Initializing TcpMessaging bridge
[2018.12.11-12.19.22:823][  0]LogUdpMessaging: Initializing bridge on interface 0.0.0.0:0 to multicast group 230.0.0.1:6666.
[2018.12.11-12.19.25:574][  0]LogMaterial: Uniform references updated for custom material expression Custom.
[2018.12.11-12.19.27:375][  0]SourceControl: Source control is disabled
[2018.12.11-12.19.27:375][  0]SourceControl: Source control is disabled
[2018.12.11-12.19.27:562][  0]SourceControl: Source control is disabled
[2018.12.11-12.19.27:721][  0]SourceControl: Source control is disabled
[2018.12.11-12.19.30:968][  0]LogAndroidPermission: UAndroidPermissionCallbackProxy::GetInstance
[2018.12.11-12.19.31:510][  0]LogOcInput: OculusInput pre-init called
[2018.12.11-12.19.33:189][  0]LogEngine: Initializing Engine...
[2018.12.11-12.19.33:388][  0]LogHMD: Failed to initialize OpenVR with code 110
[2018.12.11-12.19.35:337][  0]LogStats: UGameplayTagsManager::ConstructGameplayTagTree: Construct from data asset -  0.000 s
[2018.12.11-12.19.35:338][  0]LogStats: UGameplayTagsManager::ConstructGameplayTagTree: GameplayTagTreeChangedEvent.Broadcast -  0.000 s
[2018.12.11-12.19.36:182][  0]LogAIModule: Creating AISystem for world Untitled
[2018.12.11-12.19.36:406][  0]LogInit: XAudio2 using 'Speakers (Realtek High Definition Audio)' : 2 channels at 48 kHz using 32 bits per sample (channel mask 0x3)
[2018.12.11-12.19.36:500][  0]LogInit: FAudioDevice initialized.
[2018.12.11-12.19.44:711][  0]LogDerivedDataCache: Saved boot cache 8.19s 78MB C:/Users/shado/AppData/Local/UnrealEngine/4.18/DerivedDataCache/Boot.ddc.
[2018.12.11-12.19.44:723][  0]LogInit: Texture streaming: Enabled
[2018.12.11-12.19.45:261][  0]LogEngineSessionManager: EngineSessionManager initialized
[2018.12.11-12.19.45:902][  0]LogInit: Transaction tracking system initialized
[2018.12.11-12.19.46:903][  0]BlueprintLog: New page: Editor Load
[2018.12.11-12.19.49:844][  0]LocalizationService: Localization service is disabled
[2018.12.11-12.19.51:582][  0]LogLinker: Warning: Can't find file '/Game/QuestMap/Tutorial'
[2018.12.11-12.19.51:584][  0]LogLinker: Warning: Can't find file '/Game/QuestMap/Tutorial'
[2018.12.11-12.19.51:594][  0]LogUObjectGlobals: Warning: Failed to find object 'Class /Game/QuestMap/Tutorial.Tutorial_C'
[2018.12.11-12.19.52:449][  0]LogConsoleResponse: Display: 
[2018.12.11-12.20.00:466][  0]LogFileCache: Scanning file cache for directory 'C:/Users/shado/Documents/Unreal Projects/HordeShooter/Content/' took 0.12s
[2018.12.11-12.20.00:466][  0]LogCook: Display: Max memory allowance for cook 16384mb min free memory 0mb
[2018.12.11-12.20.00:489][  0]LogCook: Display: Mobile HDR setting 1
[2018.12.11-12.20.00:631][  0]LogGameplayTags: Display: UGameplayTagsManager::DoneAddingNativeTags. DelegateIsBound: 0
[2018.12.11-12.20.09:609][  0]SourceControl: Source control is disabled
[2018.12.11-12.20.09:669][  0]Cmd: MAP LOAD FILE="../../../../../../Users/shado/Documents/Unreal Projects/HordeShooter/Content/FirstPersonBP/Maps/FirstPersonExampleMap.umap" TEMPLATE=0 SHOWPROGRESS=1 FEATURELEVEL=3
[2018.12.11-12.20.09:675][  0]LightingResults: New page: Lighting Build
[2018.12.11-12.20.10:212][  0]MapCheck: New page: Map Check
[2018.12.11-12.20.10:212][  0]LightingResults: New page: Lighting Build
[2018.12.11-12.20.20:538][  0]LogAIModule: Creating AISystem for world FirstPersonExampleMap
[2018.12.11-12.20.21:666][  0]LogEditorServer: Finished looking for orphan Actors (0.000 secs)
[2018.12.11-12.20.22:034][  0]Cmd: MAP CHECKDEP NOCLEARLOG
[2018.12.11-12.20.22:185][  0]MapCheck: Map check complete: 0 Error(s), 0 Warning(s), took 151.947ms to complete.
[2018.12.11-12.20.22:185][  0]LogFileHelpers: Loading map 'FirstPersonExampleMap' took 12.542
[2018.12.11-12.20.24:530][  0]LogCollectionManager: Loaded 0 collections in 0.002433 seconds
[2018.12.11-12.20.24:924][  0]LogFileCache: Scanning file cache for directory 'C:/Users/shado/Documents/Unreal Projects/HordeShooter/Saved/Collections/' took 0.01s
[2018.12.11-12.20.24:924][  0]LogFileCache: Scanning file cache for directory 'C:/Users/shado/Documents/Unreal Projects/HordeShooter/Content/Developers/shado/Collections/' took 0.01s
[2018.12.11-12.20.24:924][  0]LogFileCache: Scanning file cache for directory 'C:/Users/shado/Documents/Unreal Projects/HordeShooter/Content/Collections/' took 0.01s
[2018.12.11-12.20.24:924][  0]LogCollectionManager: Rebuilt the GUID cache for 0 collections in 0.000000 seconds
[2018.12.11-12.20.24:958][  0]LogContentBrowser: Native class hierarchy populated in 0.0189 seconds. Added 2363 classes and 519 folders.
[2018.12.11-12.20.25:328][  0]LogContentBrowser: Native class hierarchy updated for 'WidgetCarousel' in 0.0004 seconds. Added 0 classes and 0 folders.
[2018.12.11-12.20.28:146][  0]LogContentBrowser: Native class hierarchy updated for 'AddContentDialog' in 0.0003 seconds. Added 0 classes and 0 folders.
[2018.12.11-12.20.28:296][  0]LogContentBrowser: Native class hierarchy updated for 'SceneOutliner' in 0.0003 seconds. Added 1 classes and 2 folders.
[2018.12.11-12.20.35:883][  0]LogSlate: Only BGRA pngs, bmps or icos are supported in by External Image Picker
[2018.12.11-12.20.36:568][  0]LogTemp: Executing iPhonePackager certificates Engine -bundlename com.YourCompany.HordeShooter
[2018.12.11-12.20.36:568][  0]LogTemp: CWD: C:\Program Files\Epic Games\UE_4.18\Engine\Binaries\DotNET\IOS
[2018.12.11-12.20.36:568][  0]LogTemp: Initial Dir: C:\Program Files\Epic Games\UE_4.18
[2018.12.11-12.20.36:568][  0]LogTemp: Env CWD: C:\Program Files\Epic Games\UE_4.18\Engine\Binaries\DotNET\IOS
[2018.12.11-12.20.36:568][  0]LogTemp: BranchPath = LAPTOP-L4N52EDD/C/Program Files/Epic Games/UE_4.18/Engine/Binaries --- GameBranchPath = LAPTOP-L4N52EDD/C/Program Files/Epic Games/UE_4.18/Engine/Binaries
[2018.12.11-12.20.36:568][  0]LogSlate: Took 0.070762 seconds to synchronously load lazily loaded font '../../../Engine/Content/Slate/Fonts/Roboto-Regular.ttf' (155K)
[2018.12.11-12.20.36:659][  0]LogSlate: Took 0.072514 seconds to synchronously load lazily loaded font '../../../Engine/Content/Slate/Fonts/Roboto-Bold.ttf' (160K)
[2018.12.11-12.20.36:810][  0]LogTemp: IPP ERROR: Could not find provision directory 'C:\Users\shado\AppData\Local/Apple Computer/MobileDevice/Provisioning Profiles/'.
[2018.12.11-12.20.36:810][  0]LogSlate: Took 0.043452 seconds to synchronously load lazily loaded font '../../../Engine/Content/Editor/Slate/Fonts/FontAwesome.ttf' (139K)
[2018.12.11-12.20.38:291][  0]LogRenderer: Reallocating scene render targets to support 1208x576 Format 10 NumSamples 1 (Frame:1).
[2018.12.11-12.20.39:788][  0]LogContentBrowser: Native class hierarchy updated for 'HierarchicalLODOutliner' in 0.0003 seconds. Added 1 classes and 2 folders.
[2018.12.11-12.20.39:788][  0]LogLoad: (Engine Initialization) Total time: 209.42 seconds
[2018.12.11-12.20.39:788][  0]LogLoad: (Engine Initialization) Total Blueprint compile time: 0.00 seconds
[2018.12.11-12.20.39:820][  0]LogExternalProfiler: Found external profiler: VSPerf
[2018.12.11-12.20.39:820][  0]LogExternalProfiler: Using external profiler: VSPerf
[2018.12.11-12.20.40:666][  0]LogContentStreaming: Texture pool size now 1000 MB
[2018.12.11-12.20.41:961][  1]LogSlate: Took 0.067560 seconds to synchronously load lazily loaded font '../../../Engine/Content/Slate/Fonts/Roboto-Light.ttf' (159K)
[2018.12.11-12.20.42:191][  2]LogSlate: Took 0.000415 seconds to synchronously load lazily loaded font '../../../Engine/Content/Slate/Fonts/Roboto-Light.ttf' (159K)
[2018.12.11-12.20.42:457][  3]LogAssetRegistry: Asset discovery search completed in 125.9217 seconds
[2018.12.11-12.20.42:489][  3]LogCollectionManager: Rebuilt the object cache for 0 collections in 0.000000 seconds (found 0 objects)
[2018.12.11-12.20.42:516][  3]LogCollectionManager: Fixed up redirectors for 0 collections in 0.026428 seconds (updated 0 objects)
[2018.12.11-12.21.06:220][423]LogTemp: Repeating last play command: Selected Viewport
[2018.12.11-12.21.06:323][423]LogBlueprintUserMessages: Early PlayInEditor Detection: Level '/Game/FirstPersonBP/Maps/FirstPersonExampleMap.FirstPersonExampleMap:PersistentLevel' has LevelScriptBlueprint '/Game/FirstPersonBP/Maps/FirstPersonExampleMap.FirstPersonExampleMap:PersistentLevel.FirstPersonExampleMap' with GeneratedClass '/Game/FirstPersonBP/Maps/FirstPersonExampleMap.FirstPersonExampleMap_C' with ClassGeneratedBy '/Game/FirstPersonBP/Maps/FirstPersonExampleMap.FirstPersonExampleMap:PersistentLevel.FirstPersonExampleMap'
[2018.12.11-12.21.06:344][423]LogPlayLevel: PlayLevel: No blueprints needed recompiling
[2018.12.11-12.21.06:479][423]PIE: New page: PIE session: FirstPersonExampleMap (12 Dec 2018 10:21:06 am)
[2018.12.11-12.21.06:509][423]LogPlayLevel: Creating play world package: /Game/FirstPersonBP/Maps/UEDPIE_0_FirstPersonExampleMap
[2018.12.11-12.21.06:579][423]LogPlayLevel: PIE: StaticDuplicateObject took: (0.070253s)
[2018.12.11-12.21.06:580][423]LogAIModule: Creating AISystem for world FirstPersonExampleMap
[2018.12.11-12.21.06:589][423]LogPlayLevel: PIE: World Init took: (0.009662s)
[2018.12.11-12.21.06:602][423]LogPlayLevel: PIE: Created PIE world by copying editor world from /Game/FirstPersonBP/Maps/FirstPersonExampleMap.FirstPersonExampleMap to /Game/FirstPersonBP/Maps/UEDPIE_0_FirstPersonExampleMap.FirstPersonExampleMap (0.092593s)
[2018.12.11-12.21.06:688][423]LogInit: XAudio2 using 'Speakers (Realtek High Definition Audio)' : 2 channels at 48 kHz using 32 bits per sample (channel mask 0x3)
[2018.12.11-12.21.06:704][423]LogInit: FAudioDevice initialized.
[2018.12.11-12.21.06:874][423]LogLoad: Game class is 'FirstPersonGameMode_C'
[2018.12.11-12.21.06:921][423]LogWorld: Bringing World /Game/FirstPersonBP/Maps/UEDPIE_0_FirstPersonExampleMap.FirstPersonExampleMap up for play (max tick rate 60) at 2018.12.11-23.21.06
[2018.12.11-12.21.06:986][423]LogWorld: Bringing up level for play took: 0.066559
[2018.12.11-12.21.07:509][423]LogContentBrowser: Native class hierarchy updated for 'MovieSceneCapture' in 0.0112 seconds. Added 11 classes and 0 folders.
[2018.12.11-12.21.07:630][423]LogBlueprintUserMessages: [FirstPersonGameMode_C_0] Game Instance cant be found
[2018.12.11-12.21.07:673][423]PIE: Play in editor start time for /Game/FirstPersonBP/Maps/UEDPIE_0_FirstPersonExampleMap 0.452
[2018.12.11-12.21.07:674][423]LogBlueprintUserMessages: Late PlayInEditor Detection: Level '/Game/FirstPersonBP/Maps/FirstPersonExampleMap.FirstPersonExampleMap:PersistentLevel' has LevelScriptBlueprint '/Game/FirstPersonBP/Maps/FirstPersonExampleMap.FirstPersonExampleMap:PersistentLevel.FirstPersonExampleMap' with GeneratedClass '/Game/FirstPersonBP/Maps/FirstPersonExampleMap.FirstPersonExampleMap_C' with ClassGeneratedBy '/Game/FirstPersonBP/Maps/FirstPersonExampleMap.FirstPersonExampleMap:PersistentLevel.FirstPersonExampleMap'
[2018.12.11-12.21.17:585][810]LogBlueprintUserMessages: Early EndPlayMap Detection: Level '/Game/FirstPersonBP/Maps/FirstPersonExampleMap.FirstPersonExampleMap:PersistentLevel' has LevelScriptBlueprint '/Game/FirstPersonBP/Maps/FirstPersonExampleMap.FirstPersonExampleMap:PersistentLevel.FirstPersonExampleMap' with GeneratedClass '/Game/FirstPersonBP/Maps/FirstPersonExampleMap.FirstPersonExampleMap_C' with ClassGeneratedBy '/Game/FirstPersonBP/Maps/FirstPersonExampleMap.FirstPersonExampleMap:PersistentLevel.FirstPersonExampleMap'
[2018.12.11-12.21.17:789][810]LogBlueprintUserMessages: Late EndPlayMap Detection: Level '/Game/FirstPersonBP/Maps/FirstPersonExampleMap.FirstPersonExampleMap:PersistentLevel' has LevelScriptBlueprint '/Game/FirstPersonBP/Maps/FirstPersonExampleMap.FirstPersonExampleMap:PersistentLevel.FirstPersonExampleMap' with GeneratedClass '/Game/FirstPersonBP/Maps/FirstPersonExampleMap.FirstPersonExampleMap_C' with ClassGeneratedBy '/Game/FirstPersonBP/Maps/FirstPersonExampleMap.FirstPersonExampleMap:PersistentLevel.FirstPersonExampleMap'
[2018.12.11-12.21.35:377][896]LogRenderer: Reallocating scene render targets to support 1208x600 Format 10 NumSamples 1 (Frame:393).
[2018.12.11-14.13.24:873][484]LogEditorViewport: Clicking on Actor (LMB): StaticMeshActor (Floor)
[2018.12.11-14.13.31:433][727]LogD3D11RHI: Error: Result failed 
 at D:\Build\++UE4+Release-4.18+Compile\Sync\Engine\Source\Runtime\Windows\D3D11RHI\Private\D3D11Viewport.cpp:289 
 with error E_INVALIDARG
[2018.12.11-14.13.31:433][727]LogWindows: Windows GetLastError: The operation completed successfully. (0)
